<?xml version="1.0" encoding="UTF-8"?>
<svg width="24px" height="24px" viewBox="0 0 24 24" version="1.1" xmlns="http://www.w3.org/2000/svg" xmlns:xlink="http://www.w3.org/1999/xlink">
    <title>A01F2F15-B9A7-49A8-92FD-4756D716073C</title>
    <defs>
        <filter id="filter-1">
            <feColorMatrix in="SourceGraphic" type="matrix" values="0 0 0 0 1.000000 0 0 0 0 1.000000 0 0 0 0 1.000000 0 0 0 1.000000 0"></feColorMatrix>
        </filter>
    </defs>
    <g id="Artboard" stroke="none" stroke-width="1" fill="none" fill-rule="evenodd">
        <g id="ic_camera" transform="translate(-1192.000000, -122.000000)" filter="url(#filter-1)">
            <g transform="translate(1192.000000, 122.000000)">
                <g id="Camera" transform="translate(4.000000, 5.000000)" fill="#200E32" fill-rule="nonzero">
                    <path d="M9.88,0 C10.656,0.00776914539 11.288,0.396226415 11.656,1.0954495 C11.751,1.27996671 11.8835,1.54945894 12.02225,1.83374592 L12.18975,2.17750026 L12.18975,2.17750026 L12.272,2.34628191 L12.352,2.51720311 C12.384,2.57158712 12.44,2.61043285 12.512,2.61043285 C14.432,2.61043285 16,4.13318535 16,5.99778024 L16,5.99778024 L16,10.6126526 C16,12.4772475 14.432,14 12.512,14 L12.512,14 L3.488,14 C1.56,14 0,12.4772475 0,10.6126526 L0,10.6126526 L0,5.99778024 C0,4.13318535 1.56,2.61043285 3.488,2.61043285 C3.552,2.61043285 3.616,2.57935627 3.64,2.51720311 L3.64,2.51720311 L3.688,2.42397336 C3.912,1.96559379 4.184,1.40621532 4.344,1.0954495 C4.712,0.396226415 5.336,0.00776914539 6.112,0 L6.112,0 L9.88,0 Z M8,4.9800222 C7.16,4.9800222 6.368,5.29855716 5.768,5.88124306 C5.176,6.46392897 4.848,7.22530522 4.856,8.03329637 C4.856,8.84905661 5.184,9.61043284 5.776,10.1931188 C6.376,10.7680355 7.16,11.0865704 8,11.0865704 C8.864,11.0865704 9.648,10.7447281 10.216,10.1931188 C10.784,9.64150942 11.136,8.88013319 11.144,8.03329637 C11.144,7.22530522 10.816,6.45615982 10.224,5.87347392 C9.632,5.29855716 8.84,4.9800222 8,4.9800222 Z M8,6.14539401 C8.52,6.14539401 9.008,6.33962264 9.376,6.69700333 C9.744,7.05438402 9.944,7.52830188 9.944,8.03329637 C9.936,9.0743618 9.072,9.9211987 8,9.9211987 C7.48,9.9211987 6.992,9.72697001 6.624,9.36958937 C6.256,9.01220864 6.056,8.53829076 6.056,8.03329637 L6.056,8.03329637 L6.056,8.02552722 C6.048,7.53607103 6.248,7.06215316 6.616,6.70477247 C6.992,6.33962264 7.48,6.14539401 8,6.14539401 Z M12.488,4.79356271 C12.088,4.79356271 11.768,5.11209767 11.768,5.50055494 C11.768,5.88901221 12.088,6.19977802 12.488,6.19977802 C12.888,6.19977802 13.216,5.88901221 13.216,5.50055494 C13.216,5.11209767 12.888,4.79356271 12.488,4.79356271 Z" id="Shape"></path>
                </g>
            </g>
        </g>
    </g>
</svg>