<?xml version="1.0" encoding="UTF-8"?>
<svg width="1370px" height="772px" viewBox="0 0 1370 772" version="1.1" xmlns="http://www.w3.org/2000/svg" xmlns:xlink="http://www.w3.org/1999/xlink">
    <title>3D4BEF4E-EE73-47F5-B43C-FF4C134BF994</title>
    <defs>
        <polygon id="path-1" points="0.146839699 0.759046944 200.583029 0.759046944 200.583029 231.669046 0.146839699 231.669046"></polygon>
        <polygon id="path-3" points="0.0481039029 0.759046944 9.06773243 0.759046944 9.06773243 73.0439162 0.0481039029 73.0439162"></polygon>
        <polygon id="path-5" points="0.17658864 0.801608692 184.577883 0.801608692 184.577883 2.80952173 0.17658864 2.80952173"></polygon>
        <polygon id="path-7" points="0.221727946 0.801608692 301.878193 0.801608692 301.878193 381.301129 0.221727946 381.301129"></polygon>
        <polygon id="path-9" points="0.0418493143 0.801608692 56.1639824 0.801608692 56.1639824 88.1458257 0.0418493143 88.1458257"></polygon>
        <polygon id="path-11" points="0.133624126 0.801608692 182.530557 0.801608692 182.530557 230.707651 0.133624126 230.707651"></polygon>
        <polygon id="path-13" points="0.875164608 0 285.494554 0 285.494554 336.325433 0.875164608 336.325433"></polygon>
        <polygon id="path-15" points="0.32231314 0.759046944 217.795579 0.759046944 217.795579 180.467264 0.32231314 180.467264"></polygon>
        <polygon id="path-17" points="0.0903064151 0.801608692 122.356382 0.801608692 122.356382 133.323869 0.0903064151 133.323869"></polygon>
        <polygon id="path-19" points="0.0286337414 0.801608692 38.1115098 0.801608692 38.1115098 87.1418692 0.0286337414 87.1418692"></polygon>
        <polygon id="path-21" points="0.0407619179 0.023347826 125.31338 0.023347826 125.31338 197.802782 0.0407619179 197.802782"></polygon>
        <polygon id="path-23" points="0 0.023347826 317.69136 0.023347826 317.69136 324.301303 0 324.301303"></polygon>
        <polygon id="path-25" points="0.82523911 0.023347826 207.274514 0.023347826 207.274514 184.751347 0.82523911 184.751347"></polygon>
        <polygon id="path-27" points="0 0.023347826 121.263895 0.023347826 121.263895 196.798825 0 196.798825"></polygon>
        <polygon id="path-29" points="0.0407619179 0.023347826 312.721218 0.023347826 312.721218 294.182607 0.0407619179 294.182607"></polygon>
        <polygon id="path-31" points="0.828910103 0.023347826 207.278185 0.023347826 207.278185 157.644521 0.828910103 157.644521"></polygon>
    </defs>
    <g id="Artboard" stroke="none" stroke-width="1" fill="none" fill-rule="evenodd" opacity="0.9">
        <g id="Mading---Slide-1" transform="translate(2.000000, 2.000000)">
            <g id="Group-3" transform="translate(-2.000000, -2.000000)">
                <rect id="Rectangle" x="0" y="0" width="1368.97917" height="771.038605"></rect>
                <g id="Group-2" transform="translate(909.980301, 182.720086)">
                    <polygon id="Fill-1" fill="#FF4C3E" points="267.785429 517.037606 263.003688 554.183998 241.702999 532.099545"></polygon>
                    <path d="M84.2849608,322.515028 L48.0284089,286.766606 C36.142118,275.0469 36.142118,256.045254 48.0284089,244.325548 L84.2849608,208.577127 C96.1723923,196.85742 115.442989,196.85742 127.32928,208.577127 L163.585832,244.325548 C175.473263,256.045254 175.473263,275.0469 163.585832,286.766606 L127.32928,322.515028 C115.442989,334.235858 96.1723923,334.235858 84.2849608,322.515028 Z" id="Stroke-32" stroke="#B63232" stroke-width="2"></path>
                    <g id="Group-36" transform="translate(257.749193, 118.509431)">
                        <mask id="mask-2" fill="white">
                            <use xlink:href="#path-1"></use>
                        </mask>
                        <g id="Clip-35"></g>
                        <path d="M85.1864741,218.529649 L13.491073,147.935911 C4.50772875,139.090463 0.920338094,127.972936 1.00680251,116.379756 C1.09471556,105.011613 4.68210621,93.1667724 13.491073,84.4930249 L85.1864741,13.8992865 C102.978785,-3.6210329 131.824951,-3.6210329 149.617262,13.8992865 L221.313804,84.4930249 C239.104974,102.012221 239.104974,130.416715 221.313804,147.935911 L149.617262,218.529649 C131.824951,236.048845 102.978785,236.048845 85.1864741,218.529649 Z" id="Stroke-34" stroke="#B63232" stroke-width="2" mask="url(#mask-2)"></path>
                    </g>
                    <g id="Group-39" transform="translate(449.264489, 514.068299)">
                        <mask id="mask-4" fill="white">
                            <use xlink:href="#path-3"></use>
                        </mask>
                        <g id="Clip-38"></g>
                        <path d="M64.7624058,182.321892 L13.0927237,130.021411 C-4.3001027,112.416248 -4.3001027,83.8694103 13.0927237,66.2631178 L64.7624058,13.9637664 C82.156348,-3.64252619 110.357765,-3.64252619 127.751707,13.9637664 L179.421389,66.2631178 C196.815331,83.8694103 196.815331,112.416248 179.421389,130.021411 L127.751707,182.321892 C110.357765,199.928184 82.156348,199.928184 64.7624058,182.321892 Z" id="Stroke-37" stroke="#B63232" stroke-width="2" mask="url(#mask-4)"></path>
                    </g>
                    <g id="Group-42" transform="translate(273.754339, 584.302693)">
                        <mask id="mask-6" fill="white">
                            <use xlink:href="#path-5"></use>
                        </mask>
                        <g id="Clip-41"></g>
                        <path d="M66.2391052,161.774853 L13.4929714,115.404353 C-4.2622056,99.7956515 -4.2622056,74.4870855 13.4929714,58.8773828 L66.2391052,12.5088857 C83.9965602,-3.10081698 112.784368,-3.10081698 130.540684,12.5088857 L183.286817,58.8773828 C201.043133,74.4870855 201.043133,99.7956515 183.286817,115.404353 L130.540684,161.774853 C112.784368,177.384555 83.9965602,177.384555 66.2391052,161.774853 Z" id="Stroke-40" stroke="#B63232" stroke-width="2" mask="url(#mask-6)"></path>
                    </g>
                    <g id="Group-45" transform="translate(155.451848, 205.811086)">
                        <mask id="mask-8" fill="white">
                            <use xlink:href="#path-7"></use>
                        </mask>
                        <g id="Clip-44"></g>
                        <path d="M210.605613,465.566969 L13.5373799,271.412345 C-4.21682272,253.921756 -4.21682272,225.564764 13.5373799,208.073053 L210.605613,13.9195504 C228.358677,-3.57103853 257.141212,-3.57103853 274.894276,13.9195504 L471.962509,208.073053 C489.715573,225.564764 489.715573,253.921756 471.962509,271.412345 L274.894276,465.566969 C257.141212,483.057558 228.358677,483.057558 210.605613,465.566969 Z" id="Stroke-43" stroke="#B63232" stroke-width="2" mask="url(#mask-8)"></path>
                    </g>
                    <path d="M76.6476414,565.063418 L13.324636,502.258889 C-4.44154532,484.638174 -4.44154532,456.069082 13.324636,438.448367 L76.6476414,375.643839 C94.4138227,358.023124 123.217624,358.023124 140.983806,375.643839 L204.307951,438.448367 C222.074132,456.069082 222.074132,484.638174 204.307951,502.258889 L140.983806,565.063418 C123.217624,582.684133 94.4138227,582.684133 76.6476414,565.063418 Z" id="Stroke-46" stroke="#B63232" stroke-width="2"></path>
                    <path d="M358.168613,121.125885 L327.461256,90.8486939 C313.40783,76.9921358 313.40783,54.526168 327.461256,40.6696099 L358.168613,10.3924186 C372.222039,-3.46413953 395.007194,-3.46413953 409.06062,10.3924186 L439.767977,40.6696099 C453.822542,54.526168 453.822542,76.9921358 439.767977,90.8486939 L409.06062,121.125885 C395.007194,134.982443 372.222039,134.982443 358.168613,121.125885 Z" id="Stroke-48" stroke="#B63232" stroke-width="2"></path>
                    <g id="Group-52" transform="translate(401.166059, 111.439173)">
                        <mask id="mask-10" fill="white">
                            <use xlink:href="#path-9"></use>
                        </mask>
                        <g id="Clip-51"></g>
                        <path d="M29.5304232,82.1535613 L6.09147049,58.9401315 C-1.97469108,50.9504456 -1.97469108,37.9969887 6.09147049,30.0073029 L29.5304232,6.79387309 C37.5977303,-1.19581277 50.6781781,-1.19581277 58.7454853,6.79387309 L82.1832923,30.0073029 C90.2505995,37.9969887 90.2505995,50.9504456 82.1832923,58.9401315 L58.7454853,82.1535613 C50.6781781,90.1432472 37.5977303,90.1432472 29.5304232,82.1535613 Z" id="Stroke-50" stroke="#B63232" stroke-width="2" mask="url(#mask-10)"></path>
                    </g>
                    <path d="M209.700126,334.417872 L186.510775,311.471263 C178.529377,303.573412 178.529377,290.768846 186.510775,282.870995 L209.700126,259.924387 C217.681525,252.026536 230.621546,252.026536 238.602944,259.924387 L261.792295,282.870995 C269.773694,290.768846 269.773694,303.573412 261.792295,311.471263 L238.602944,334.417872 C230.621546,342.315722 217.681525,342.315722 209.700126,334.417872 Z" id="Stroke-53" stroke="#B63232" stroke-width="2"></path>
                    <path d="M196.023024,207.98443 L188.466325,200.635776 C184.563628,196.840524 184.563628,190.686692 188.466325,186.89144 L196.023024,179.542786 C199.925721,175.747534 206.253772,175.747534 210.156469,179.542786 L217.714309,186.89144 C221.617007,190.686692 221.617007,196.840524 217.714309,200.635776 L210.156469,207.98443 C206.253772,211.779682 199.925721,211.779682 196.023024,207.98443 Z" id="Stroke-55" stroke="#B63232" stroke-width="2"></path>
                    <path d="M102.338574,366.689977 L66.0808815,330.941632 C54.1945906,319.221951 54.1945906,300.220345 66.0808815,288.500664 L102.338574,252.751194 C114.224865,241.031513 133.495461,241.031513 145.381752,252.751194 L181.638304,288.500664 C193.525736,300.220345 193.525736,319.221951 181.638304,330.941632 L145.381752,366.689977 C133.495461,378.409658 114.224865,378.409658 102.338574,366.689977" id="Fill-57" fill="#E91B35"></path>
                    <g id="Group-61" transform="translate(275.801665, 163.644912)">
                        <mask id="mask-12" fill="white">
                            <use xlink:href="#path-11"></use>
                        </mask>
                        <g id="Clip-60"></g>
                        <path d="M13.4778575,147.338675 C-4.31445365,129.895671 -4.31445365,101.613589 13.4778575,84.1705853 L85.1732586,13.8838616 C102.96557,-3.55914229 131.811735,-3.55914229 149.604046,13.8838616 L221.300589,84.1705853 C239.091758,101.613589 239.091758,129.895671 221.300589,147.338675 L149.604046,217.625398 C131.811735,235.068402 102.96557,235.068402 85.1732586,217.625398 L13.4778575,147.338675 Z" id="Fill-59" fill="#920417" mask="url(#mask-12)"></path>
                    </g>
                    <g id="Group-64" transform="translate(173.504320, 250.989129)">
                        <mask id="mask-14" fill="white">
                            <use xlink:href="#path-13"></use>
                        </mask>
                        <g id="Clip-63"></g>
                        <path d="M212.127919,464.737833 L14.2450059,270.174653 C-3.58144914,252.64736 -3.58144914,224.230861 14.2450059,206.703569 L212.127919,12.141513 C229.954374,-5.38577968 258.855896,-5.38577968 276.682351,12.141513 L474.565264,206.703569 C492.391719,224.230861 492.391719,252.64736 474.565264,270.174653 L276.682351,464.737833 C258.855896,482.265125 229.954374,482.265125 212.127919,464.737833" id="Fill-62" fill="#1E2836" mask="url(#mask-14)"></path>
                    </g>
                    <g id="Group-67" transform="translate(18.052473, 406.644951)">
                        <mask id="mask-16" fill="white">
                            <use xlink:href="#path-15"></use>
                        </mask>
                        <g id="Clip-66"></g>
                        <path d="M76.9143287,202.451604 L13.6363754,139.938862 C-4.1157076,122.401137 -4.1157076,93.9636511 13.6363754,76.424801 L76.9143287,13.9131845 C94.6675505,-3.62566558 123.450341,-3.62566558 141.203563,13.9131845 L204.481517,76.424801 C222.2336,93.9636511 222.2336,122.401137 204.481517,139.938862 L141.203563,202.451604 C123.450341,219.990454 94.6675505,219.990454 76.9143287,202.451604" id="Fill-65" fill="#E91B35" mask="url(#mask-16)"></path>
                    </g>
                    <g id="Group-70" transform="translate(336.732798, 44.174087)">
                        <mask id="mask-18" fill="white">
                            <use xlink:href="#path-17"></use>
                        </mask>
                        <g id="Clip-69"></g>
                        <path d="M10.6226601,92.3438041 C-3.42047815,78.3814707 -3.42047815,55.744007 10.6226601,41.7816736 L41.3075372,11.2733587 C55.3506755,-2.68897465 78.1191501,-2.68897465 92.1622884,11.2733587 L122.847165,41.7816736 C136.891441,55.744007 136.891441,78.3814707 122.847165,92.3438041 L92.1622884,122.852119 C78.1191501,136.814452 55.3506755,136.814452 41.3075372,122.852119 L10.6226601,92.3438041 Z" id="Fill-68" fill="#B63232" mask="url(#mask-18)"></path>
                    </g>
                    <g id="Group-73" transform="translate(420.915998, 157.621173)">
                        <mask id="mask-20" fill="white">
                            <use xlink:href="#path-19"></use>
                        </mask>
                        <g id="Clip-72"></g>
                        <path d="M29.5169212,81.2184814 L6.07911412,58.2718726 C-1.98819305,50.3740222 -1.98819305,37.5694556 6.07911412,29.6716053 L29.5169212,6.72499648 C37.5842284,-1.17285391 50.6646761,-1.17285391 58.7319833,6.72499648 L82.170936,29.6716053 C90.2370975,37.5694556 90.2370975,50.3740222 82.170936,58.2718726 L58.7319833,81.2184814 C50.6646761,89.1163318 37.5842284,89.1163318 29.5169212,81.2184814" id="Fill-71" fill="#B63232" mask="url(#mask-20)"></path>
                    </g>
                    <path d="M227.752599,379.527038 L204.563248,356.313608 C196.581849,348.323923 196.581849,335.370466 204.563248,327.38078 L227.752599,304.16735 C235.733997,296.177664 248.674018,296.177664 256.655417,304.16735 L279.844768,327.38078 C287.826166,335.370466 287.826166,348.323923 279.844768,356.313608 L256.655417,379.527038 C248.674018,387.516724 235.733997,387.516724 227.752599,379.527038" id="Fill-74" fill="#B63232"></path>
                    <path d="M214.075497,253.078826 L206.518798,245.514219 C202.6161,241.607438 202.6161,235.272765 206.518798,231.365983 L214.075497,223.801376 C217.978194,219.893453 224.306245,219.893453 228.208942,223.801376 L235.766782,231.365983 C239.669479,235.272765 239.669479,241.607438 235.766782,245.514219 L228.208942,253.078826 C224.306245,256.985607 217.978194,256.985607 214.075497,253.078826" id="Fill-78" fill="#B63232"></path>
                </g>
                <g id="Group">
                    <g id="Group-4" transform="translate(0.961419, 232.917912)">
                        <mask id="mask-22" fill="white">
                            <use xlink:href="#path-21"></use>
                        </mask>
                        <g id="Clip-3"></g>
                        <path d="M-4.01334482,185.371437 L-60.6460964,128.924879 C-77.2758976,112.349753 -77.2758976,85.4763767 -60.6460964,68.9012501 L-4.01334482,12.4546928 C12.6164564,-4.12043382 39.5784768,-4.12043382 56.2082779,12.4546928 L112.841029,68.9012501 C120.628941,76.6635567 123.475594,87.0433972 123.969184,97.207407 C124.529573,108.746965 121.682919,120.112059 112.841029,128.924879 L56.2082779,185.371437 C48.0734007,193.479569 37.3215772,195.829706 26.6607547,196.005252 C15.528088,196.188569 4.48157916,193.838432 -4.01334482,185.371437 Z" id="Stroke-2" stroke="#B63232" stroke-width="2" mask="url(#mask-22)"></path>
                    </g>
                    <path d="M117.259682,577.053647 L64.4748301,524.483576 C46.7066199,506.787665 46.7066199,478.094814 64.4748301,460.396632 L117.259682,407.827696 C135.029032,390.13065 163.839111,390.13065 181.608461,407.827696 L234.392174,460.396632 C252.162664,478.094814 252.162664,506.787665 234.392174,524.483576 L181.608461,577.053647 C163.839111,594.750694 135.029032,594.750694 117.259682,577.053647 Z" id="Stroke-5" stroke="#B63232" stroke-width="2"></path>
                    <g id="Group-9" transform="translate(0.000000, 3.011870)">
                        <mask id="mask-24" fill="white">
                            <use xlink:href="#path-23"></use>
                        </mask>
                        <g id="Clip-8"></g>
                        <path d="M43.0190597,311.073126 L-154.049405,115.28695 C-171.802489,97.6493816 -171.802489,69.0540959 -154.049405,51.4153958 L43.0190597,-144.369649 C60.7721444,-162.007218 89.554713,-162.007218 107.307798,-144.369649 L304.377401,51.4153958 C322.129347,69.0540959 322.129347,97.6493816 304.377401,115.28695 L107.307798,311.073126 C89.554713,328.710695 60.7721444,328.710695 43.0190597,311.073126 Z" id="Stroke-7" stroke="#B63232" stroke-width="2" mask="url(#mask-24)"></path>
                    </g>
                    <g id="Group-12" transform="translate(240.700369, 4.015826)">
                        <mask id="mask-26" fill="white">
                            <use xlink:href="#path-25"></use>
                        </mask>
                        <g id="Clip-11"></g>
                    </g>
                    <path d="M229.042342,401.951772 L160.179929,333.743476 C149.86416,323.525696 149.86416,306.960694 160.179929,296.741782 L229.042342,228.534618 C239.358111,218.315706 256.081971,218.315706 266.39774,228.534618 L335.260153,296.741782 C345.575922,306.960694 345.575922,323.525696 335.260153,333.743476 L266.39774,401.951772 C256.081971,412.168421 239.358111,412.168421 229.042342,401.951772 Z" id="Stroke-13" stroke="#B63232" stroke-width="2"></path>
                    <g id="Group-17" transform="translate(1.002181, 203.803173)">
                        <mask id="mask-28" fill="white">
                            <use xlink:href="#path-27"></use>
                        </mask>
                        <g id="Clip-16"></g>
                        <path d="M-8.71639383,184.430654 L-65.6348432,128.269822 C-82.3485375,111.778928 -82.3485375,85.0421178 -65.6348432,68.5512234 L-8.71639383,12.3915186 C7.99730047,-4.09937577 35.0953374,-4.09937577 51.8090317,12.3915186 L108.728624,68.5512234 C125.442318,85.0421178 125.442318,111.778928 108.728624,128.269822 L51.8090317,184.430654 C35.0953374,200.921549 7.99730047,200.921549 -8.71639383,184.430654" id="Fill-15" fill="#B63232" mask="url(#mask-28)"></path>
                    </g>
                    <path d="M113.248877,547.002998 L60.4640244,494.702441 C42.6946744,477.097253 42.6946744,448.551503 60.4640244,430.945185 L113.248877,378.645758 C131.018227,361.03831 159.827166,361.03831 177.596516,378.645758 L230.381368,430.945185 C248.150718,448.551503 248.150718,477.097253 230.381368,494.702441 L177.596516,547.002998 C159.827166,564.609316 131.018227,564.609316 113.248877,547.002998" id="Fill-18" fill="#E91B35"></path>
                    <g id="Group-22" transform="translate(0.961419, 0.000000)">
                        <mask id="mask-30" fill="white">
                            <use xlink:href="#path-29"></use>
                        </mask>
                        <g id="Clip-21"></g>
                        <path d="M37.046736,274.407101 L-160.021729,70.8714135 C-177.774813,52.5357234 -177.774813,22.807417 -160.021729,4.47172694 L37.046736,-199.062784 C54.7998206,-217.39965 83.5835281,-217.39965 101.336613,-199.062784 L298.405077,4.47172694 C316.157023,22.807417 316.157023,52.5357234 298.405077,70.8714135 L101.336613,274.407101 C83.5835281,292.742791 54.7998206,292.742791 37.046736,274.407101" id="Fill-20" fill="#1E2836" mask="url(#mask-30)"></path>
                    </g>
                    <g id="Group-25" transform="translate(241.698879, 0.000000)">
                        <mask id="mask-32" fill="white">
                            <use xlink:href="#path-31"></use>
                        </mask>
                        <g id="Clip-24"></g>
                        <path d="M15.1706876,84.4909144 C-2.61544115,66.6732738 -2.61544115,37.7848996 15.1706876,19.9672591 L72.8509584,-37.8152041 C90.6370872,-55.6328447 119.47437,-55.6328447 137.260499,-37.8152041 L194.94077,19.9672591 C203.187453,28.2285532 206.642014,39.1643762 207.241414,49.9786295 C207.934776,62.4881407 204.480215,74.9345679 194.94077,84.4909144 L137.260499,142.273378 C119.47437,160.091018 90.6370872,160.091018 72.8509584,142.273378 L15.1706876,84.4909144 Z" id="Fill-23" fill="#E91B35" mask="url(#mask-32)"></path>
                    </g>
                    <path d="M225.030223,372.795422 L156.168222,304.224316 C145.852515,293.952186 145.852515,277.299073 156.168222,267.026942 L225.030223,198.455836 C235.34593,188.183706 252.070831,188.183706 262.386539,198.455836 L331.248539,267.026942 C341.564246,277.299073 341.564246,293.952186 331.248539,304.224316 L262.386539,372.795422 C252.070831,383.067553 235.34593,383.067553 225.030223,372.795422" id="Fill-26" fill="#920417"></path>
                    <path d="M360.137398,271.030858 L336.948047,247.550607 C328.966649,239.469086 328.966649,226.366738 336.948047,218.285217 L360.137398,194.804966 C368.118797,186.723445 381.058817,186.723445 389.040216,194.804966 L412.229567,218.285217 C420.210966,226.366738 420.210966,239.469086 412.229567,247.550607 L389.040216,271.030858 C381.058817,279.112379 368.118797,279.112379 360.137398,271.030858 Z" id="Stroke-28" stroke="#B63232" stroke-width="2"></path>
                    <path d="M368.52497,366.60956 L360.966946,359.260905 C357.065294,355.465654 357.065294,349.311821 360.966946,345.51657 L368.52497,338.167915 C372.427762,334.372664 378.755967,334.372664 382.65876,338.167915 L390.215643,345.51657 C394.118435,349.311821 394.118435,355.465654 390.215643,359.260905 L382.65876,366.60956 C378.755967,370.404811 372.427762,370.404811 368.52497,366.60956 Z" id="Stroke-30" stroke="#B63232" stroke-width="2"></path>
                    <path d="M360.137398,254.032474 L336.948047,230.819044 C328.966649,222.829358 328.966649,209.875901 336.948047,201.886215 L360.137398,178.672785 C368.118797,170.683099 381.058817,170.683099 389.040216,178.672785 L412.229567,201.886215 C420.210966,209.875901 420.210966,222.829358 412.229567,230.819044 L389.040216,254.032474 C381.058817,262.022159 368.118797,262.022159 360.137398,254.032474" id="Fill-76" fill="#B63232"></path>
                    <path d="M368.52497,348.538435 L360.966946,341.18891 C357.065294,337.394891 357.065294,331.241259 360.966946,327.44613 L368.52497,320.096606 C372.427762,316.301477 378.755967,316.301477 382.65876,320.096606 L390.215643,327.44613 C394.118435,331.241259 394.118435,337.394891 390.215643,341.18891 L382.65876,348.538435 C378.755967,352.333563 372.427762,352.333563 368.52497,348.538435" id="Fill-80" fill="#E91B35"></path>
                </g>
            </g>
        </g>
    </g>
</svg>